module crawl

go 1.16

require (
	github.com/MontFerret/ferret v0.15.0 // indirect
	github.com/PuerkitoBio/goquery v1.7.1 // indirect
	github.com/antchfx/htmlquery v1.2.4 // indirect
	github.com/antchfx/xmlquery v1.3.8 // indirect
	github.com/armon/consul-api v0.0.0-20180202201655-eb2c6b5be1b6 // indirect
	github.com/coreos/etcd v3.3.10+incompatible // indirect
	github.com/coreos/go-etcd v2.0.0+incompatible // indirect
	github.com/geziyor/geziyor v0.0.0-20211021191925-369b42cbc6c5 // indirect
	github.com/gocolly/colly v1.2.0 // indirect
	github.com/gorilla/mux v1.8.0 // indirect
	github.com/kennygrant/sanitize v1.2.4 // indirect
	github.com/saintfish/chardet v0.0.0-20120816061221-3af4cd4741ca // indirect
	github.com/sirupsen/logrus v1.8.1 // indirect
	github.com/spf13/viper v1.9.0 // indirect
	github.com/temoto/robotstxt v1.1.2 // indirect
	github.com/ugorji/go/codec v0.0.0-20181204163529-d75b2dcb6bc8 // indirect
	github.com/xordataexchange/crypt v0.0.3-0.20170626215501-b2862e3d0a77 // indirect
	go.mongodb.org/mongo-driver v1.7.3 // indirect
	golang.org/x/net v0.0.0-20211020060615-d418f374d309 // indirect
)
